474163 227517 449
190983 324090 443
756129 306214 509
697628 257243 509
193509 270069 443
367376 467032 449
604401 343607 470
12617 326901 443
772235 524350 509
159055 771630 509
937905 679511 525
458669 192065 449
223316 375956 443
128724 876138 525
825438 727413 468
430446 521043 470
971858 717352 525
824263 133677 509
119661 891424 525
607025 585827 403
715131 970773 525
909080 246461 525
815257 409871 509
929862 922480 476
81233 795237 509
531836 346499 470
637719 672279 442
770867 342797 509
511582 203701 449
946998 259782 525
292831 694422 509
212681 215764 373
84520 945698 525
585437 48448 470
704435 919923 525
921306 96073 525
598924 412947 470
364155 277087 441
10623 258647 443
432470 805893 509
577019 96138 470
216689 614305 470
231840 269674 407
563648 446942 470
394634 378991 436
547894 290168 470
891947 667668 525
141932 74680 354
224657 326401 443
707558 560910 509
886352 787327 525
114769 192543 383
134495 133470 313
970252 361121 525
707247 115298 509
685433 347638 509
873950 960784 507
931900 589310 525
203170 24930 383
753274 74009 509
185077 362795 443
759791 290204 509
705929 423284 509
636906 68154 509
896284 29943 525
496344 788150 509
379816 628041 509
918907 112105 525
323962 748219 509
388161 625620 470
306433 139212 443
222926 691237 509
750803 306434 509
255000 786855 509
824072 967108 525
755100 655810 504
756245 671337 504
324392 667471 509
130565 447452 449
728505 187939 509
28274 430189 449
963406 216871 525
48004 427930 449
859683 926578 476
987169 443770 525
47521 236179 443
69809 332226 443
963173 366900 525
637700 993960 525
205105 57350 383
35235 890996 525
699883 856921 525
822709 593104 509
820439 353845 509
924114 689734 525
438798 145116 449
240648 508568 449
921583 741272 525
486372 609535 470
868926 367640 525
325335 546850 470
133644 43456 354
446227 344290 449
923345 725528 525
290103 892693 525
668359 78577 509
883970 560483 525
393702 983549 525
981757 270594 525
322315 493971 449
482968 865857 525
316723 503536 449
965192 336645 525
585941 636869 509
574448 243624 470
544242 60850 470
687465 330443 509
997198 969782 458
441754 63083 449
286396 75085 443
358754 586318 470
510392 350880 449
319107 591715 470
703917 609773 509
887967 559940 525
281446 717715 509
494003 118413 449
871260 542157 525
727399 160211 509
811111 48017 509
505360 255687 449
386742 523410 470
325792 784977 509
461671 219339 449
351825 77181 443
545979 543341 359
565860 532537 452
903729 349342 525
425381 468314 444
402386 530464 470
774376 899881 525
689600 917974 525
627893 796260 504
108803 701615 509
303478 420822 449
455759 383226 449
939847 368979 525
895284 826863 525
750473 288359 509
805549 760791 468
264101 418707 449
508867 876055 525
127106 602546 470
785853 446922 509
427864 117818 449
511109 565933 470
451960 942183 525
951353 253143 525
119638 745476 509
322673 511436 449
572412 978863 525
977417 39983 525
836482 522885 509
209909 205604 373
89880 854453 525
640573 376525 509
431537 184201 449
441275 315326 449
171561 728880 509
616103 610591 447
645267 328617 509
724161 224969 509
375835 872911 525
947477 717706 525
296898 129067 443
189663 52246 383
62510 768050 509
562 274023 443
316461 903599 525
960266 513546 525
928503 909678 476
933609 103459 525
278617 71344 443
602862 326994 470
545620 891908 525
446778 604625 470
357637 604876 470
4745 433649 449
148950 749912 509
305289 843318 525
5131 696450 509
314012 780514 509
227444 309165 443
357259 145459 443
109964 789328 509
212676 636931 509
414230 434235 418
429477 837795 509
74971 158997 383
160006 25187 383
94046 790294 509
421102 643619 509
73970 315468 443
642235 634970 416
939894 57320 525
180608 127197 383
687456 274486 509
620109 747092 509
604216 844990 525
959996 648201 525
382126 877351 525
879131 627163 525
738363 506198 509
221342 527721 470
248910 46543 443
769845 848856 525
685210 456861 509
705371 542663 509
318245 202726 443
980208 943553 458
427334 834329 509
522963 92449 470
376952 479297 449
182223 483586 449
913221 726741 525
182101 718226 509
826613 267117 509
867718 970653 507
719794 304744 509
68636 803231 509
528255 824930 509
56719 732619 509
787775 408505 509
415456 158585 449
958665 798061 525
488177 36201 449
553540 729788 509
185014 770065 509
847299 237951 525
862363 311478 525
881643 341937 525
342654 503424 449
609924 608446 359
995399 645391 525
190451 796804 509
533947 84899 470
655897 742226 504
264122 276596 407
47678 913707 525
586110 896215 525
68699 295590 443
65791 102923 351
384553 13860 443
944115 303026 525
196832 34192 383
466740 100667 449
292328 157000 443
736958 985808 525
578079 605326 434
446079 197347 449
833324 288073 509
183975 383675 443
786727 998995 525
710318 588199 509
928870 61089 525
288172 195289 443
165545 260695 443
376586 607531 470
166282 908497 525
776795 266693 509
960664 664113 525
933746 837259 525
667763 561240 509
69974 613294 470
435263 133747 449
849555 643865 525
458943 134587 449
541492 229586 470
234602 717218 509
108252 437461 449
711021 252527 509
453043 186413 449
366787 886556 525
778995 846001 525
419917 46831 449
526127 726974 509
971964 154399 525
165821 370380 443
420258 767200 509
385980 226132 443
907777 989434 507
131662 434389 449
378137 441269 449
236415 883371 525
593933 956277 525
974940 307469 525
914052 919890 432
95266 363681 443
687771 891263 525
485672 351718 449
612837 381234 470
488193 391275 449
197302 395569 443
641076 666302 442
148651 93309 375
392881 312886 441
919906 532449 525
222045 391788 443
616770 486462 470
905174 213768 525
895946 186504 525
873060 68007 525
104279 44148 351
267248 576172 470
354366 805171 509
234010 1778 443
262756 434765 449
534209 492255 470
9680 394329 443
233443 129453 443
345085 919626 525
549110 981190 525
907145 942837 507
257738 541235 470
687126 765326 504
118053 946655 525
178539 557324 470
918961 383062 525
885225 145241 525
711 104391 351
105660 266081 443
814082 798966 406
286356 792273 509
214546 851816 525
758496 768284 468
868924 315014 525
637429 707276 504
475810 632600 509
2944 724927 509
270588 643366 509
65241 455764 449
938811 595447 525
283377 411282 449
723790 629175 504
713194 531332 509
907730 958119 507
682289 41962 509
617402 210875 470
394731 756641 509
420598 715823 509
319571 308825 384
644381 128046 509
749110 952074 525
240375 848088 525
337536 166833 443
432081 612514 470
837549 785195 468
155157 573024 470
573117 187417 470
723106 169211 509
692604 674699 442
390163 65745 443
223326 623883 470
961224 704139 525
420551 187058 449
529684 914312 525
938147 343474 525
395545 466125 449
615619 666370 509
795429 477989 509
155711 269904 443
106451 693989 509
783703 72621 509
341247 727404 509
742482 145561 509
198010 663618 509
177580 689001 509
795434 817426 468
68606 931215 525
688121 704426 442
208158 483660 449
296095 74865 443
745102 514415 509
29627 130665 354
584746 569532 434
864122 716727 525
474827 488879 413
958692 702485 525
965850 995773 458
711231 120555 509
974174 977426 383
166661 464827 449
463800 376301 449
122462 646657 509
999090 827636 525
600932 325042 470
73407 820258 509
757905 304870 509
889215 613135 525
200844 689192 509
863777 533975 525
619770 864936 525
526368 960652 525
109052 166198 383
22150 833774 509
964050 867142 507
20517 65189 340
396149 687265 509
214581 122612 383
468069 346995 449
707300 604324 509
467610 976411 525
523243 885902 525
874081 328191 525
420531 204777 449
211127 93772 383
408353 584315 470
830791 569241 509
128335 784934 509
732085 371037 509
169337 793461 509
228110 979541 525
903829 945028 507
61729 475855 449
768460 241976 509
891945 490413 525
90134 34781 351
975017 643918 525
952585 774395 525
547428 744180 509
427398 152291 449
355822 88869 443
150146 264156 443
350411 862724 525
498168 946459 525
9551 529746 470
927940 595330 525
306362 348177 441
102391 217553 386
723028 493091 509
997172 538800 525
811734 874528 525
486475 420669 444
267513 104827 443
323588 780152 509
768721 770068 393
659541 157751 509
150363 631931 509
322289 102069 443
896364 955556 507
87129 705051 509
407838 651253 509
209875 156602 373
516793 435355 470
696230 493830 509
196073 225708 386
579952 391956 470
533707 421806 470
176427 649846 509
509992 874659 525
297576 389835 441
273700 547059 470
374863 164770 443
218551 442851 449
765415 360370 509
319158 416249 449
449879 563477 470
496373 872362 525
342550 505341 449
245866 213777 443
757569 239629 509
189223 52929 383
872061 310814 525
266751 723551 509
483329 529383 470
863677 666643 525
972826 564862 525
221476 543937 470
724765 383629 509
794571 513845 509
839393 193537 525
679854 275030 509
745291 938408 525
677372 449015 509
384694 347645 423
66947 21675 340
915313 628721 525
272034 773205 509
807975 145818 509
41420 775282 509
321370 372736 441
843246 555051 525
794132 238413 509
615107 252204 470
951047 928349 507
616028 376774 470
402499 447732 449
648281 691180 442
230649 846508 525
263065 668851 509
